…
### Get Similar Books

``` r

similar_dat <- gr_similar_books("https://www.goodreads.com/book/show/54498122-covid-19")

similar_dat
#> # A tibble: 30 x 7
#>    author    author_url   book_title   book_url   avg_rating reviews book_cover 
#>    <chr>     <chr>        <chr>        <chr>           <dbl>   <dbl> <chr>      
#>  1 Karina R~ https://www~ Corona, Fal~ https://w~       4.42     124 https://i.~
#>  2 Karina R~ https://www~ The COVID-1~ https://w~       4        129 https://i.~
#>  3 Karina R~ https://www~ Ten Lessons~ https://w~       4.07     707 https://i.~
#>  4 Karina R~ https://www~ Kirmizi Saç~ https://w~       3.71    6127 https://i.~
#>  5 Karina R~ https://www~ The Demon i~ https://w~       4.08     242 https://i.~
#>  6 Karina R~ https://www~ The Midnigh~ https://w~       3.88      33 https://i.~
#>  7 Karina R~ https://www~ The Ride of~ https://w~       4.36   26689 https://i.~
#>  8 Karina R~ https://www~ Drive: The ~ https://w~       3.94   88234 https://i.~
#>  9 Karina R~ https://www~ Fully Autom~ https://w~       3.71     651 https://i.~
#> 10 Karina R~ https://www~ Humankind: ~ https://w~       4.41    3226 https://i.~
#> # ... with 20 more rows
```
…
### Get Book genres

``` r

genre_dat <- gr_genres("https://www.goodreads.com/book/show/3.Harry_Potter_and_the_Sorcerer_s_Stone")
#> https://www.goodreads.com/book/shelves/3.Harry_Potter_and_the_Sorcerer_s_Stone
#> This book has more than 10 genre pages (959). By default only the first 10 pages will be scraped.

genre_dat
#> # A tibble: 1,000 x 3
#>    book_url                                            genre        genre_raters
#>    <chr>                                               <chr>               <dbl>
#>  1 https://www.goodreads.com/book/show/3.Harry_Potter~ to-read           1009250
#>  2 https://www.goodreads.com/book/show/3.Harry_Potter~ currently-r~       151642
#>  3 https://www.goodreads.com/book/show/3.Harry_Potter~ fantasy             62462
#>  4 https://www.goodreads.com/book/show/3.Harry_Potter~ favorites           56832
#>  5 https://www.goodreads.com/book/show/3.Harry_Potter~ fiction             18715
#>  6 https://www.goodreads.com/book/show/3.Harry_Potter~ young-adult         18506
#>  7 https://www.goodreads.com/book/show/3.Harry_Potter~ harry-potter        11628
#>  8 https://www.goodreads.com/book/show/3.Harry_Potter~ own                 10091
#>  9 https://www.goodreads.com/book/show/3.Harry_Potter~ books-i-own          9975
#> 10 https://www.goodreads.com/book/show/3.Harry_Potter~ owned                9549
#> # ... with 990 more rows
```
…
